<svg id="linkedin-rect" xmlns="http://www.w3.org/2000/svg" width="16.828" height="16.828" viewBox="0 0 16.828 16.828">
  <path id="Path_90" data-name="Path 90" d="M3.307.012a3.308,3.308,0,0,0-3.3,3.3V13.543a3.307,3.307,0,0,0,3.3,3.3H13.54a3.307,3.307,0,0,0,3.3-3.3V3.31a3.307,3.307,0,0,0-3.3-3.3Zm.829,2.777a1.325,1.325,0,1,1-.017,2.642H4.1a1.325,1.325,0,1,1,.033-2.642ZM11.629,6.3c1.672,0,2.926,1.093,2.926,3.442v4.385H12.014V10.032C12.014,9,11.646,8.3,10.726,8.3a1.392,1.392,0,0,0-1.3.929,1.741,1.741,0,0,0-.084.62v4.271H6.8s.033-6.93,0-7.647H9.339V7.558A2.523,2.523,0,0,1,11.629,6.3Zm-8.781.18H5.39v7.647H2.849V6.476Z" transform="translate(-0.009 -0.012)" fill="#8da2c2"/>
</svg>
